{
  "project_info": {
    "project_number": "250958033954",
    "project_id": "android-video-call-a3db2",
    "storage_bucket": "android-video-call-a3db2.appspot.com"
  },
  "client": [
    {
      "client_info": {
        "mobilesdk_app_id": "1:250958033954:android:9836983e77f1d4fd81867b",
        "android_client_info": {
          "package_name": "com.example.videocallapp"
        }
      },
      "oauth_client": [
        {
          "client_id": "250958033954-1qel5af7cf6v0hih3do1nvva2n51quo1.apps.googleusercontent.com",
          "client_type": 3
        }
      ],
      "api_key": [
        {
          "current_key": "AIzaSyDccpTNq6CeE5xdAVmKaHKj94HiplaeIWQ"
        }
      ],
      "services": {
        "appinvite_service": {
          "other_platform_oauth_client": [
            {
              "client_id": "250958033954-1qel5af7cf6v0hih3do1nvva2n51quo1.apps.googleusercontent.com",
              "client_type": 3
            }
          ]
        }
      }
    }
  ],
  "configuration_version": "1"
}